1 4
0 2
1 0
3 1
1 2
0 0
2 1
4 0
3 2
2 0
0 1
1 3
0 5
2 4
0 3
1 1
3 0
2 2
4 1
6 0
5 2
3 3
2 5
0 4
2 3
1 5
0 7
2 6
3 4
4 2
5 0
7 1
9 0
8 2
7 0
5 1
4 3
6 2
8 1
10 0
9 2
8 0
6 1
5 3
7 2
9 1
11 0
10 2
8 3
6 4
4 5
3 7
1 6
0 8
2 7
0 6
1 8
0 10
2 9
1 7
0 9
2 8
3 6
4 4
6 3
5 5
7 4
9 3
10 1
12 0
11 2
13 1
15 0
17 1
19 0
21 1
23 0
25 1
27 0
29 1
31 0
30 2
29 0
31 1
29 2
30 0
31 2
29 3
30 1
28 0
26 1
24 0
22 1
20 0
18 1
16 0
14 1
12 2
13 0
11 1
10 3
8 4
6 5
7 3
5 4
3 5
4 7
3 9
1 10
0 12
2 11
1 9
0 11
2 10
3 8
4 6
5 8
6 6
8 5
10 4
12 3
14 2
12 1
14 0
13 2
15 1
17 0
19 1
21 0
23 1
25 0
27 1
25 2
26 0
28 1
26 2
24 1
22 0
20 1
18 0
16 1
18 2
16 3
14 4
15 2
13 3
11 4
9 5
7 6
5 7
4 9
3 11
1 12
0 14
2 13
1 11
0 13
2 12
3 10
4 8
5 6
7 5
9 4
11 3
10 5
8 6
6 7
5 9
4 11
3 13
1 14
0 16
1 18
0 20
1 22
0 24
1 26
0 28
1 30
3 31
2 29
0 30
2 31
1 29
0 31
2 30
0 29
1 31
3 30
2 28
0 27
1 25
0 23
1 21
0 19
1 17
0 15
1 13
3 12
4 10
6 9
7 7
9 6
11 5
13 4
15 3
17 2
19 3
21 2
23 3
25 4
24 2
26 3
28 2
30 3
31 5
29 4
31 3
30 5
28 4
27 2
25 3
23 2
21 3
19 2
17 3
15 4
16 2
14 3
12 4
11 6
9 7
7 8
6 10
5 12
4 14
2 15
3 17
1 16
0 18
1 20
0 22
1 24
0 26
1 28
2 26
0 25
1 27
2 25
1 23
0 21
1 19
0 17
1 15
3 14
2 16
3 18
2 20
3 22
2 24
3 26
4 28
2 27
3 29
4 31
5 29
3 28
4 30
6 31
7 29
5 30
7 31
6 29
5 31
4 29
3 27
4 25
3 23
2 21
3 19
2 17
3 15
4 13
2 14
3 16
2 18
3 20
2 22
3 24
4 26
5 28
6 30
8 31
9 29
7 30
6 28
4 27
3 25
2 23
3 21
2 19
4 18
5 16
6 14
4 15
5 13
6 11
4 12
5 10
6 8
8 7
10 6
12 5
11 7
9 8
7 9
8 11
6 12
7 10
5 11
6 13
7 11
8 9
10 8
12 7
13 5
15 6
16 4
18 3
20 2
22 3
24 4
26 5
27 3
28 5
30 4
28 3
26 4
24 3
22 2
20 3
18 4
16 5
14 6
13 8
12 6
10 7
8 8
10 9
8 10
7 12
9 11
8 13
7 15
5 14
4 16
6 15
5 17
4 19
5 21
4 23
5 25
6 27
8 28
7 26
5 27
6 25
4 24
5 26
6 24
5 22
4 20
5 18
6 16
4 17
5 15
7 14
8 12
9 10
11 9
10 11
9 9
11 8
13 7
14 5
16 6
17 4
15 5
13 6
12 8
14 7
13 9
11 10
10 12
9 14
7 13
9 12
10 10
12 9
14 8
16 7
17 5
19 4
21 5
23 4
25 5
27 4
29 5
31 4
30 6
31 8
29 7
31 6
30 8
29 6
27 5
25 6
23 5
21 4
19 5
17 6
15 7
14 9
12 10
11 12
9 13
8 15
7 17
6 19
7 21
5 20
4 22
5 24
6 26
7 28
8 30
10 31
11 29
9 30
11 31
10 29
9 31
8 29
7 27
8 25
7 23
6 21
5 19
4 21
5 23
7 24
6 22
7 20
6 18
7 16
8 14
10 13
11 11
13 10
15 9
17 8
18 6
20 5
22 4
24 5
26 6
28 7
29 9
30 7
28 6
29 8
31 7
30 9
28 8
27 6
25 7
23 6
21 7
22 5
20 4
18 5
20 6
18 7
16 8
15 10
13 11
12 13
10 14
9 16
8 18
6 17
7 19
8 17
9 15
11 14
12 12
14 11
16 10
15 8
17 7
19 6
18 8
20 7
22 6
24 7
26 8
28 9
27 7
25 8
24 6
26 7
24 8
22 7
20 8
21 6
19 7
21 8
23 7
24 9
22 8
20 9
18 10
19 8
17 9
16 11
14 10
12 11
11 13
10 15
8 16
7 18
6 20
7 22
8 20
9 18
10 16
12 15
13 13
15 12
17 11
16 9
15 11
13 12
12 14
11 16
9 17
8 19
9 21
8 23
7 25
6 23
8 24
9 26
10 28
8 27
9 25
10 27
8 26
9 28
10 30
12 31
13 29
11 30
13 31
12 29
11 27
10 25
9 27
11 28
12 30
14 31
16 30
14 29
12 28
13 30
15 31
17 30
15 29
13 28
14 30
16 31
18 30
20 31
22 30
24 31
26 30
28 31
30 30
31 28
29 29
31 30
29 31
30 29
31 31
29 30
31 29
30 31
28 30
26 31
27 29
29 28
31 27
30 25
31 23
30 21
31 19
30 17
31 15
30 13
31 11
29 10
31 9
30 11
28 10
27 8
25 9
23 8
21 9
19 10
21 11
22 9
24 10
26 9
27 11
25 10
27 9
28 11
30 10
31 12
29 11
31 10
30 12
31 14
29 13
27 12
26 10
24 11
23 9
21 10
19 9
17 10
16 12
14 13
13 15
12 17
11 15
10 17
9 19
8 21
9 23
10 21
8 22
9 20
10 18
11 20
10 22
9 24
10 26
11 24
12 26
14 27
13 25
11 26
10 24
9 22
10 20
11 18
12 16
13 14
14 12
16 13
14 14
13 16
11 17
10 19
11 21
10 23
11 25
12 27
14 28
15 30
17 31
16 29
15 27
13 26
12 24
11 22
12 20
13 18
11 19
12 21
11 23
12 25
13 27
15 28
14 26
13 24
12 22
13 20
12 18
14 17
15 15
17 14
15 13
17 12
19 11
18 9
20 10
18 11
17 13
15 14
14 16
16 15
18 14
19 12
21 13
20 11
22 10
23 12
25 11
27 10
28 12
26 11
27 13
29 12
31 13
29 14
30 16
31 18
29 17
31 16
30 14
28 13
26 12
27 14
29 15
28 17
30 18
29 16
31 17
30 15
28 14
26 13
24 12
23 10
22 12
24 13
23 11
25 12
23 13
22 11
20 12
18 13
16 14
14 15
13 17
12 19
13 21
12 23
14 24
13 22
14 20
15 18
13 19
14 21
13 23
14 25
16 26
17 28
19 29
18 31
17 29
19 30
21 31
23 30
25 31
27 30
28 28
30 27
31 25
30 23
31 21
30 19
28 18
27 16
26 14
28 15
26 16
25 14
27 15
25 16
24 14
22 13
20 14
21 12
19 13
21 14
19 15
20 13
18 12
19 14
17 15
15 16
14 18
16 17
15 19
17 18
15 17
14 19
16 18
17 16
19 17
18 15
16 16
18 17
20 16
22 15
24 16
23 14
25 13
26 15
28 16
29 18
30 20
31 22
30 24
31 26
30 28
28 29
27 31
25 30
23 31
21 30
19 31
18 29
16 28
15 26
17 27
16 25
15 23
16 21
14 22
15 20
16 22
14 23
15 25
16 27
18 28
20 29
22 28
24 29
26 28
28 27
30 26
31 24
30 22
31 20
29 19
27 18
28 20
29 22
28 24
29 26
27 27
26 29
24 30
22 31
20 30
22 29
24 28
26 27
25 29
27 28
29 27
28 25
29 23
28 21
27 19
29 20
28 22
29 24
28 26
27 24
29 25
27 26
25 27
23 28
21 29
19 28
18 26
17 24
19 25
18 27
20 28
19 26
17 25
15 24
17 23
15 22
16 20
18 19
17 17
19 16
21 15
23 16
22 14
24 15
22 16
20 15
18 16
20 17
18 18
16 19
15 21
16 23
17 21
18 23
16 24
17 26
19 27
21 28
23 29
25 28
26 26
24 27
25 25
26 23
27 25
28 23
29 21
28 19
27 17
26 19
25 17
23 18
21 17
19 18
17 19
18 21
19 19
17 20
18 22
19 20
20 18
21 16
23 15
24 17
25 15
26 17
24 18
22 17
21 19
23 20
25 19
27 20
26 18
25 20
27 21
25 22
27 23
26 25
24 26
22 27
20 26
18 25
19 23
17 22
18 20
20 19
22 18
24 19
23 17
25 18
26 20
27 22
26 24
25 26
23 27
21 26
23 25
25 24
26 22
24 23
25 21
23 22
25 23
26 21
24 20
22 19
20 20
21 18
23 19
21 20
19 21
20 23
18 24
20 25
21 27
23 26
24 24
22 25
20 24
19 22
21 21
22 23
23 21
21 22
22 24
24 25
22 26
20 27
21 25
19 24
20 22
21 24
23 23
24 21
22 20
20 21
21 23
22 21
24 22
23 24
22 22
-1
