1 4
0 6
2 7
1 5
0 7
2 6
0 5
1 7
3 6
5 7
4 5
3 7
1 6
0 4
2 5
1 3
0 1
2 0
1 2
0 0
2 1
0 2
1 0
3 1
5 0
7 1
9 0
11 1
13 0
15 1
17 0
19 1
21 0
23 1
25 0
27 1
29 0
31 1
30 3
31 5
30 7
31 9
29 10
30 8
31 10
29 9
31 8
30 10
28 9
26 10
27 8
28 10
30 9
31 7
29 8
30 6
31 4
30 2
31 0
29 1
31 2
30 0
28 1
26 0
25 2
24 0
26 1
28 0
30 1
31 3
29 2
30 4
31 6
29 7
30 5
29 3
28 5
27 3
29 4
28 2
27 0
26 2
28 3
29 5
28 7
27 9
25 10
26 8
27 10
28 8
29 6
28 4
27 2
25 1
23 0
24 2
26 3
27 5
25 4
26 6
27 4
28 6
26 7
25 9
24 7
25 5
27 6
26 4
24 3
22 2
24 1
22 0
20 1
18 0
16 1
14 0
13 2
12 0
10 1
8 0
9 2
10 0
8 1
6 0
4 1
3 3
5 2
4 0
6 1
8 2
7 0
6 2
8 3
9 1
11 0
10 2
12 1
11 3
10 5
8 6
7 4
5 3
7 2
5 1
3 2
2 4
0 3
1 1
3 0
2 2
4 3
6 4
5 6
4 4
2 3
3 5
4 7
6 6
5 4
4 2
3 4
4 6
6 5
7 3
8 5
7 7
9 8
10 10
11 12
10 14
11 16
10 18
12 17
10 16
11 18
13 17
12 15
11 17
13 18
12 16
10 17
12 18
13 16
11 15
10 13
12 14
10 15
11 13
13 14
15 13
17 14
19 15
20 13
18 14
19 16
20 14
19 12
20 10
22 9
24 10
26 9
27 7
26 5
25 3
23 4
24 6
25 8
23 9
22 7
24 8
25 6
24 4
23 2
21 1
19 0
18 2
20 3
22 4
21 2
20 0
22 1
23 3
24 5
25 7
24 9
23 7
21 8
22 10
23 8
21 7
20 5
21 3
19 2
17 1
15 0
14 2
12 3
13 1
11 2
12 4
14 3
12 2
14 1
16 0
18 1
16 2
18 3
20 2
22 3
21 5
19 4
17 3
15 2
13 3
11 4
9 5
8 7
7 5
6 3
8 4
7 6
5 5
6 7
8 8
9 6
11 5
10 7
9 9
10 11
11 9
12 11
10 12
11 14
13 13
15 14
13 15
12 13
11 11
10 9
9 7
11 6
10 8
11 10
12 8
13 6
11 7
12 5
10 6
12 7
13 5
15 4
17 5
16 3
14 4
15 6
16 4
17 2
19 3
21 4
20 6
18 5
20 4
21 6
19 5
17 4
15 3
13 4
15 5
17 6
18 4
19 6
20 8
18 7
16 6
14 5
12 6
14 7
16 8
18 9
19 7
20 9
22 8
23 10
21 9
20 7
18 6
16 5
14 6
16 7
18 8
19 10
17 9
19 8
17 7
15 8
13 7
11 8
13 9
15 10
14 8
12 9
13 11
14 9
15 7
13 8
12 10
13 12
14 14
16 13
14 12
13 10
12 12
14 11
15 9
17 8
16 10
15 12
14 10
16 9
17 11
18 13
16 14
14 13
15 11
17 12
18 10
16 11
17 13
18 11
16 12
17 10
19 9
21 10
20 12
19 14
18 12
20 11
19 13
20 15
22 14
23 12
25 13
27 12
29 13
31 12
30 14
29 12
31 13
29 14
30 12
31 14
30 16
31 18
30 20
31 22
30 24
31 26
30 28
31 30
29 31
30 29
31 31
29 30
27 31
28 29
30 30
31 28
29 27
28 25
30 26
31 24
29 23
30 25
31 27
29 28
31 29
30 31
28 30
26 31
24 30
22 31
20 30
18 31
19 29
20 27
22 26
20 25
21 27
23 26
22 28
21 26
20 28
18 29
19 31
21 30
23 31
22 29
21 31
19 30
21 29
20 31
18 30
20 29
22 30
21 28
20 26
22 27
23 29
24 31
26 30
28 31
27 29
25 30
24 28
23 30
25 31
24 29
25 27
26 29
27 27
25 28
24 26
23 28
25 29
24 27
26 26
27 28
29 29
27 30
26 28
28 27
29 25
30 27
28 28
27 26
25 25
26 27
28 26
27 24
25 23
26 25
28 24
29 26
31 25
30 23
31 21
29 22
31 23
29 24
27 25
25 24
23 23
24 21
23 19
25 20
24 22
23 24
21 23
22 21
20 22
22 23
24 24
25 26
26 24
28 23
30 22
31 20
29 21
30 19
31 17
30 15
-1
