1 4
0 6
2 7
4 6
6 7
7 5
5 6
7 7
6 5
5 7
7 6
6 4
7 2
6 0
5 2
7 1
5 0
6 2
7 0
5 1
6 3
5 5
7 4
6 6
4 7
2 6
0 7
1 5
0 3
1 1
3 0
4 2
6 1
7 3
5 4
3 5
1 6
3 7
2 5
1 7
0 5
1 3
0 1
2 0
4 1
5 3
3 4
2 2
4 3
3 1
1 0
0 2
2 3
0 4
1 2
0 0
2 1
4 0
3 2
4 4
3 6
2 4
4 5
3 3
-1
