1 4
0 2
1 0
2 2
0 1
2 0
1 2
0 0
2 1
4 0
3 2
1 1
3 0
5 1
7 0
6 2
5 0
3 1
2 3
0 4
1 6
2 4
0 3
1 5
0 7
2 6
0 5
1 3
2 5
0 6
2 7
3 5
4 3
5 5
3 4
4 2
6 1
8 0
7 2
6 0
4 1
3 3
5 2
7 1
9 0
8 2
6 3
4 4
3 6
5 7
4 5
5 3
7 4
6 6
5 4
7 3
8 1
10 0
9 2
11 1
13 0
12 2
11 0
9 1
8 3
6 4
5 6
7 5
6 7
4 6
6 5
8 4
7 6
9 5
11 4
10 2
12 1
14 0
13 2
12 0
10 1
11 3
10 5
8 6
9 8
7 7
8 5
10 6
8 7
10 8
9 6
11 5
12 3
13 1
15 0
17 1
19 0
21 1
23 0
25 1
27 0
29 1
31 0
30 2
29 0
31 1
29 2
30 0
28 1
26 0
24 1
22 0
20 1
18 0
16 1
14 2
13 4
15 3
14 1
16 0
18 1
20 0
22 1
24 0
26 1
28 0
30 1
31 3
29 4
28 2
30 3
31 5
29 6
30 4
31 2
29 3
27 2
25 3
23 2
21 3
19 2
17 3
15 2
13 3
11 2
12 4
14 3
15 1
17 0
19 1
21 0
23 1
25 0
27 1
25 2
27 3
25 4
26 2
28 3
26 4
24 3
22 2
20 3
18 2
16 3
14 4
12 5
11 7
13 6
15 5
17 4
16 2
18 3
20 2
22 3
24 2
26 3
28 4
30 5
31 7
29 8
30 6
31 4
29 5
27 4
25 5
23 4
21 5
19 4
17 5
15 4
13 5
11 6
9 7
10 9
8 8
10 7
12 6
14 5
16 4
17 2
19 3
21 2
23 3
21 4
19 5
17 6
18 4
16 5
14 6
12 7
11 9
13 8
15 7
14 9
13 7
11 8
9 9
11 10
12 8
14 7
16 6
18 5
20 4
19 6
17 7
15 6
14 8
12 9
10 10
12 11
13 9
15 8
14 10
16 9
18 8
16 7
18 6
20 5
22 4
24 5
26 6
28 5
29 7
31 6
30 8
28 7
27 5
25 6
24 4
26 5
28 6
30 7
31 9
29 10
28 8
27 6
25 7
27 8
29 9
31 8
30 10
28 9
27 7
25 8
24 6
26 7
24 8
22 7
20 6
18 7
16 8
15 10
13 11
11 12
12 10
10 11
11 13
10 15
12 14
10 13
11 11
13 10
15 9
17 8
19 7
21 6
23 7
21 8
19 9
20 7
22 8
24 7
26 8
27 10
25 9
23 8
21 7
19 8
17 9
16 11
14 12
12 13
10 12
11 14
12 12
14 11
16 10
18 9
20 8
22 9
20 10
18 11
16 12
17 10
15 11
13 12
15 13
13 14
11 15
10 17
12 16
11 18
10 16
12 15
10 14
11 16
10 18
12 17
13 15
14 13
16 14
15 12
13 13
15 14
17 13
19 12
18 10
20 9
22 10
20 11
21 9
19 10
17 11
16 13
18 12
17 14
19 13
17 12
19 11
21 10
20 12
18 13
20 14
22 13
24 12
26 13
28 12
30 13
31 15
29 14
31 13
29 12
30 14
31 12
29 13
31 14
30 12
28 13
26 12
27 14
29 15
31 16
30 18
29 16
31 17
30 15
28 14
27 12
25 13
23 12
24 14
25 12
27 13
28 15
30 16
31 18
29 17
30 19
31 21
30 23
31 25
30 27
31 29
30 31
28 30
30 29
31 31
29 30
27 31
28 29
29 31
31 30
30 28
31 26
29 27
31 28
30 30
28 31
29 29
27 30
25 31
26 29
28 28
29 26
31 27
29 28
30 26
31 24
30 22
31 20
29 19
30 17
31 19
30 21
31 23
30 25
28 26
27 28
26 30
24 31
22 30
20 31
18 30
20 29
19 31
21 30
23 31
25 30
27 29
26 31
24 30
22 31
20 30
18 31
19 29
21 28
11 26
9 27
7 28
5 29
3 30
1 31
0 29
1 27
0 25
1 23
0 21
1 19
0 17
1 15
0 13
1 11
0 9
2 10
0 11
1 9
2 11
0 10
2 9
3 11
1 10
0 12
1 14
0 16
1 18
0 20
1 22
0 24
1 26
0 28
1 30
2 28
0 27
1 29
0 31
2 30
1 28
0 30
2 31
3 29
2 27
0 26
1 24
0 22
1 20
0 18
1 16
0 14
1 12
2 14
0 15
1 13
3 12
4 10
6 9
5 11
3 10
2 12
4 11
3 9
5 10
4 12
2 13
3 15
2 17
3 19
2 21
4 20
2 19
1 17
0 19
1 21
0 23
1 25
2 23
3 25
4 27
2 26
3 28
4 30
2 29
3 31
4 29
3 27
2 25
4 26
5 28
6 30
8 31
7 29
5 30
4 28
3 26
2 24
3 22
2 20
3 18
2 16
3 14
5 13
6 11
5 9
7 10
6 12
4 13
5 15
3 16
2 18
3 20
2 22
4 21
5 19
4 17
6 16
4 15
3 13
2 15
4 14
5 12
6 10
7 12
6 14
5 16
3 17
4 19
3 21
5 20
4 18
6 17
4 16
5 14
7 13
6 15
5 17
6 19
5 21
6 23
4 22
5 24
6 26
4 25
5 27
6 29
5 31
7 30
6 28
5 26
6 24
5 22
6 20
5 18
7 17
8 19
6 18
7 16
8 14
6 13
7 11
8 13
7 15
8 17
7 19
8 21
7 23
6 25
5 23
7 24
5 25
6 27
7 25
8 27
9 29
10 31
8 30
9 28
7 27
8 29
7 31
9 30
8 28
7 26
8 24
9 26
10 28
11 30
9 31
10 29
11 31
12 29
10 30
12 31
11 29
10 27
8 26
9 24
8 22
7 20
8 18
9 20
10 22
8 23
9 25
10 23
9 21
11 20
12 22
10 21
8 20
9 22
10 20
11 22
9 23
8 25
10 26
11 28
12 30
14 31
13 29
12 27
11 25
12 23
10 24
12 25
11 27
10 25
11 23
12 21
14 20
15 18
16 16
17 18
15 17
17 16
16 18
15 16
17 17
16 19
15 21
13 20
15 19
14 21
15 23
13 24
12 26
11 24
13 25
14 27
12 28
13 30
15 31
14 29
13 31
15 30
14 28
13 26
12 24
14 25
13 27
15 28
14 30
13 28
15 29
16 27
14 26
15 24
16 26
18 27
16 28
15 26
14 24
15 22
13 21
15 20
16 22
17 20
18 18
16 17
17 19
16 21
17 23
16 25
15 27
16 29
17 27
18 25
16 24
17 26
15 25
16 23
17 25
18 23
17 21
18 19
16 20
17 22
18 20
19 18
21 17
20 15
18 14
20 13
22 14
24 13
22 12
23 14
25 15
27 16
26 14
24 15
23 13
25 14
27 15
28 17
26 16
27 18
28 16
29 18
30 20
31 22
30 24
29 22
28 20
26 19
28 18
29 20
28 22
29 24
27 25
28 27
29 25
27 26
26 28
24 29
22 28
23 30
21 31
19 30
21 29
23 28
25 29
26 27
24 28
22 29
20 28
22 27
23 29
25 28
27 27
28 25
29 23
28 21
27 19
26 17
24 16
26 15
27 17
28 19
29 21
28 23
27 21
25 20
26 18
25 16
23 15
21 14
19 15
21 16
23 17
22 15
20 16
19 14
21 15
23 16
22 18
24 19
26 20
25 22
26 24
25 26
24 24
26 25
25 27
23 26
21 27
20 25
22 26
24 27
26 26
27 24
25 25
24 23
25 21
27 20
25 19
26 21
25 23
24 21
23 19
22 17
20 18
19 20
18 22
17 24
19 23
18 21
19 19
21 18
22 16
23 18
21 19
23 20
24 22
25 24
23 23
22 21
24 20
22 19
20 20
19 22
18 24
20 23
19 21
20 19
22 20
20 21
21 23
23 22
22 24
21 22
23 21
21 20
22 22
-1
