1 4
0 2
1 0
3 1
5 0
7 1
9 0
8 2
7 0
5 1
3 0
1 1
0 3
2 2
0 1
2 0
4 1
6 0
8 1
6 2
4 3
3 5
1 6
0 4
1 2
0 0
2 1
4 0
3 2
2 4
0 5
1 3
2 5
0 6
2 7
1 5
0 7
2 6
4 7
6 6
7 4
5 3
6 1
8 0
10 1
12 0
14 1
16 0
18 1
20 0
22 1
24 0
26 1
28 0
30 1
31 3
29 2
30 0
31 2
30 4
31 6
30 8
31 10
29 9
31 8
30 10
28 9
29 7
30 9
31 7
30 5
29 3
31 4
30 6
28 5
27 3
28 1
26 0
27 2
29 1
31 0
30 2
29 0
31 1
30 3
31 5
29 4
28 2
27 0
25 1
23 0
24 2
25 0
27 1
28 3
29 5
30 7
31 9
29 10
28 8
27 10
25 9
27 8
28 10
29 8
28 6
27 4
26 2
25 4
26 6
28 7
27 9
25 10
26 8
27 6
28 4
29 6
27 5
26 3
25 5
24 3
23 1
21 0
19 1
17 0
16 2
15 0
17 1
19 0
21 1
22 3
20 2
18 3
20 4
19 2
18 0
20 1
22 0
24 1
22 2
23 4
21 3
23 2
25 3
26 5
24 4
25 2
26 4
25 6
27 7
26 9
25 7
24 5
23 3
21 2
22 4
20 3
18 2
16 1
14 0
12 1
10 0
9 2
11 1
13 0
12 2
11 0
10 2
8 3
9 1
7 2
8 4
6 3
4 2
2 3
4 4
5 2
3 3
5 4
7 3
6 5
4 6
3 4
5 5
3 6
5 7
4 5
3 7
5 6
6 4
8 5
7 7
9 6
7 5
6 7
8 6
10 5
11 3
13 2
15 1
17 2
19 3
21 4
19 5
17 4
15 3
13 4
14 2
12 3
13 1
11 2
12 4
14 3
16 4
15 2
17 3
19 4
21 5
20 7
18 6
20 5
18 4
16 3
15 5
17 6
19 7
18 5
20 6
22 7
24 6
26 7
24 8
23 10
21 9
23 8
24 10
25 8
26 10
24 9
23 7
21 6
22 8
24 7
23 9
21 8
22 10
20 11
19 9
18 7
17 5
15 4
13 3
11 4
9 5
7 6
8 8
10 7
11 5
13 6
14 4
12 5
11 7
9 8
10 6
8 7
9 9
10 11
11 9
12 7
13 5
11 6
9 7
10 9
12 8
14 7
12 6
14 5
16 6
17 8
15 7
16 5
14 6
13 8
15 9
16 7
18 8
19 6
21 7
22 9
20 8
21 10
20 12
19 10
17 9
19 8
17 7
15 6
13 7
15 8
13 9
11 8
10 10
12 9
10 8
11 10
10 12
12 11
11 13
10 15
11 17
13 18
12 16
11 18
13 17
12 15
10 16
11 14
13 13
11 12
10 14
11 16
10 18
12 17
11 15
10 17
12 18
13 16
12 14
10 13
11 11
13 10
14 8
16 9
14 10
13 12
12 10
14 9
16 8
18 9
20 10
18 11
16 10
14 11
12 12
13 14
15 13
16 11
14 12
12 13
14 14
15 12
13 11
15 10
17 11
16 13
15 11
17 10
18 12
17 14
16 12
15 14
13 15
14 13
16 14
17 12
18 10
20 9
19 11
18 13
19 15
20 13
18 14
19 12
17 13
19 14
20 16
21 14
19 13
20 15
22 16
21 18
19 19
17 18
16 16
15 18
14 20
12 21
10 20
8 19
7 17
8 15
7 13
8 11
6 10
4 9
2 10
0 9
1 11
2 9
0 10
1 12
0 14
2 13
0 12
1 10
3 9
2 11
1 9
0 11
1 13
3 12
4 10
6 9
7 11
8 13
7 15
8 17
7 19
5 20
6 18
5 16
3 15
1 14
0 16
2 15
3 13
5 12
3 11
5 10
4 12
3 10
5 9
6 11
8 12
7 10
5 11
7 12
8 14
6 13
4 14
6 15
5 13
4 11
2 12
0 13
1 15
3 14
2 16
0 17
1 19
2 17
0 18
1 16
2 14
0 15
1 17
3 16
5 15
4 13
6 12
7 14
8 16
6 17
4 16
5 14
6 16
4 17
2 18
0 19
1 21
0 23
1 25
0 27
1 29
0 31
2 30
4 31
6 30
8 31
7 29
6 31
4 30
2 31
0 30
1 28
0 26
1 24
0 22
1 20
2 22
0 21
1 23
0 25
2 26
3 28
1 27
0 29
1 31
2 29
3 31
1 30
0 28
2 27
3 29
5 30
4 28
3 30
5 31
4 29
2 28
1 26
0 24
2 25
3 27
5 28
4 26
5 24
3 25
2 23
4 22
3 20
4 18
2 19
0 20
1 18
3 17
4 15
6 14
7 16
8 18
9 20
11 21
13 20
15 19
16 17
18 18
17 16
15 17
16 19
15 21
17 20
16 18
15 16
17 17
18 19
16 20
14 21
12 20
10 21
8 20
7 18
5 19
3 18
5 17
6 19
5 21
4 19
3 21
1 22
2 20
4 21
3 19
2 21
4 20
5 18
6 20
5 22
7 23
8 21
10 22
11 20
12 22
13 24
11 23
9 22
8 24
6 23
8 22
7 20
9 21
10 23
11 25
9 24
7 25
5 26
6 24
8 23
10 24
11 22
13 21
12 23
14 24
12 25
14 26
16 27
18 26
16 25
15 23
16 21
17 19
15 20
16 22
18 21
17 23
15 22
17 21
18 23
17 25
18 27
16 28
15 30
13 31
14 29
16 30
14 31
15 29
16 31
14 30
12 31
13 29
15 28
17 27
16 29
15 31
13 30
11 31
9 30
7 31
6 29
8 30
10 31
12 30
13 28
11 29
9 28
10 30
12 29
14 28
15 26
16 24
18 25
16 26
15 24
13 25
12 27
10 26
11 24
9 23
8 25
7 27
6 25
5 23
3 22
2 24
4 25
5 27
3 26
5 25
6 27
5 29
4 27
6 26
7 28
8 26
7 24
9 25
8 27
6 28
7 30
9 29
10 27
8 28
7 26
9 27
11 28
12 26
14 27
15 25
16 23
18 22
17 24
19 23
17 22
18 24
17 26
15 27
14 25
13 27
23 27
21 26
20 28
19 30
21 31
20 29
18 30
20 31
19 29
18 31
20 30
18 29
19 31
21 30
23 31
22 29
21 27
20 25
22 26
20 27
22 28
23 26
25 25
24 27
23 29
22 31
21 29
22 27
20 26
21 28
22 30
24 31
26 30
28 31
30 30
31 28
30 26
31 24
30 22
31 20
30 18
31 16
30 14
31 12
29 13
31 14
30 12
28 13
26 12
24 13
22 12
23 14
21 15
19 16
20 14
22 13
24 12
25 14
23 15
21 16
22 14
23 12
25 13
27 12
26 14
25 12
23 13
24 15
23 17
22 15
21 17
19 18
18 20
19 22
20 20
22 19
20 18
19 20
20 22
22 23
21 21
20 19
19 21
20 23
22 24
21 22
23 23
25 24
24 26
23 28
24 30
25 28
26 26
27 28
28 30
30 31
31 29
29 28
31 27
30 29
31 31
29 30
27 31
25 30
27 29
26 31
25 29
23 30
25 31
24 29
25 27
26 29
24 28
26 27
28 28
27 30
29 31
31 30
29 29
30 27
28 26
27 24
29 23
30 25
29 27
28 29
30 28
31 26
29 25
28 27
26 28
27 26
28 24
26 25
27 27
28 25
30 24
29 26
31 25
29 24
31 23
30 21
28 22
30 23
31 21
29 22
28 20
26 21
25 23
23 24
21 23
20 21
21 19
22 21
24 22
23 20
22 18
21 20
22 22
24 23
23 21
24 19
25 21
23 22
22 20
23 18
24 20
26 19
27 21
29 20
31 19
30 17
31 15
30 13
29 15
28 17
26 16
27 14
28 12
26 13
25 15
23 16
24 14
25 16
27 15
29 14
30 16
31 18
29 19
28 21
27 19
25 20
23 19
22 17
24 16
26 17
28 16
29 18
30 20
28 19
29 21
28 23
26 24
25 26
24 24
25 22
26 20
24 21
25 19
27 18
29 17
27 16
26 18
27 20
28 18
30 19
31 17
29 16
28 14
26 15
27 17
28 15
27 13
29 12
31 13
30 15
-1
