1 4
0 2
1 0
2 2
0 1
2 0
1 2
0 0
2 1
1 3
0 5
1 7
2 5
0 6
2 7
1 5
0 7
2 6
4 7
3 5
1 6
0 4
2 3
1 1
0 3
2 4
3 2
4 0
6 1
8 0
10 1
12 0
14 1
16 0
18 1
20 0
22 1
24 0
26 1
28 0
30 1
31 3
30 5
31 7
30 9
29 7
31 8
30 10
29 8
31 9
30 7
31 5
30 3
31 1
29 0
30 2
31 0
29 1
31 2
30 0
29 2
30 4
31 6
30 8
31 10
29 9
28 7
30 6
31 4
29 5
28 3
27 1
26 3
28 2
29 4
28 6
27 8
28 10
26 9
28 8
29 10
27 9
26 7
27 5
29 6
28 4
27 2
29 3
28 1
27 3
28 5
27 7
28 9
26 10
25 8
26 6
27 4
26 2
27 0
25 1
24 3
26 4
27 6
26 8
27 10
25 9
24 7
25 5
23 4
25 3
26 5
25 7
24 9
23 7
25 6
24 8
25 10
23 9
22 7
24 6
25 4
24 2
25 0
23 1
25 2
26 0
24 1
23 3
24 5
22 4
23 2
24 4
22 3
21 1
23 0
22 2
21 0
20 2
21 4
20 6
21 8
22 10
23 8
24 10
22 9
21 7
20 9
22 8
23 10
21 9
20 11
19 13
21 14
23 15
25 16
27 17
29 18
31 19
30 21
31 23
30 25
31 27
30 29
31 31
29 30
31 29
30 31
28 30
26 31
27 29
28 31
30 30
31 28
29 29
31 30
29 31
27 30
25 31
26 29
27 31
28 29
30 28
31 26
29 27
27 28
26 30
24 31
25 29
23 30
21 31
22 29
23 31
25 30
26 28
28 27
30 26
29 28
27 27
29 26
31 25
30 27
28 28
26 27
28 26
29 24
30 22
31 24
29 25
30 23
31 21
29 22
30 24
31 22
29 23
28 25
26 26
25 28
24 30
22 31
23 29
21 30
19 31
20 29
22 30
24 29
25 27
27 26
28 24
26 25
24 26
23 28
21 29
20 31
19 29
18 31
20 30
21 28
22 26
24 27
22 28
23 26
24 28
25 26
27 25
28 23
29 21
31 20
30 18
29 20
28 22
27 24
25 25
23 24
25 23
26 21
28 20
30 19
31 17
30 15
31 13
29 14
31 15
30 17
29 19
31 18
30 20
28 21
27 19
28 17
30 16
31 14
29 15
31 16
29 17
28 19
27 21
25 22
26 24
24 23
22 24
23 22
24 24
22 23
24 22
25 24
23 23
24 21
26 20
27 18
28 16
26 17
28 18
27 20
25 21
26 19
24 20
22 21
21 23
19 22
18 24
17 26
16 28
15 30
13 31
11 30
9 31
7 30
5 31
3 30
1 31
0 29
2 30
0 31
1 29
2 31
0 30
2 29
3 31
1 30
3 29
4 31
6 30
8 31
10 30
12 31
14 30
16 31
15 29
14 31
16 30
14 29
15 31
13 30
11 31
9 30
7 31
5 30
7 29
6 31
4 30
6 29
8 30
10 31
12 30
10 29
12 28
14 27
13 29
15 28
17 27
16 29
14 28
12 29
10 28
8 29
6 28
4 29
2 28
0 27
2 26
1 28
3 27
5 28
7 27
9 28
11 29
13 28
15 27
16 25
18 26
16 27
17 25
18 27
16 26
18 25
19 23
21 22
23 21
25 20
26 18
27 16
28 14
29 16
30 14
31 12
29 13
28 15
26 16
27 14
28 12
26 13
27 15
28 13
26 14
27 12
25 13
26 15
27 13
25 14
24 16
23 18
25 19
23 20
22 22
20 23
21 21
22 19
23 17
24 19
22 20
20 21
18 22
17 24
15 25
13 26
11 27
9 26
8 28
10 27
9 29
11 28
13 27
15 26
13 25
12 27
14 26
12 25
10 26
8 27
6 26
7 28
5 29
3 28
1 27
3 26
4 28
2 27
0 28
1 26
3 25
4 27
5 25
6 27
4 26
2 25
0 26
1 24
0 22
2 23
1 25
0 23
2 24
0 25
1 23
3 22
5 23
4 25
5 27
7 26
9 27
10 25
12 26
14 25
16 24
18 23
20 22
21 20
23 19
22 17
21 19
19 20
17 21
16 23
14 24
15 22
17 23
15 24
16 22
18 21
20 20
21 18
22 16
24 15
23 13
25 12
24 14
23 16
25 15
24 13
22 14
21 16
22 18
20 19
19 21
17 22
15 23
13 24
11 25
9 24
8 26
6 25
8 24
10 23
9 25
11 24
9 23
8 25
10 24
12 23
10 22
8 23
7 25
5 26
6 24
5 22
7 23
5 24
4 22
6 23
8 22
10 21
11 23
9 22
11 21
13 20
15 21
17 20
19 19
17 18
18 20
16 21
17 19
19 18
21 17
22 15
20 16
19 14
21 15
23 14
24 12
22 13
20 14
19 16
18 14
20 13
19 15
18 13
20 12
21 10
19 11
17 12
16 14
14 13
13 15
12 17
10 18
11 16
12 18
13 16
11 17
13 18
12 16
11 18
13 17
12 15
10 16
11 14
13 13
15 14
17 13
19 12
20 10
18 11
19 9
20 7
21 5
20 3
19 1
21 2
22 0
20 1
21 3
20 5
19 7
21 6
20 8
19 10
18 12
17 14
16 12
17 10
18 8
19 6
20 4
19 2
18 0
17 2
19 3
18 5
17 7
19 8
18 10
16 11
15 13
13 14
11 15
12 13
14 14
16 13
17 11
18 9
16 10
15 12
14 10
16 9
15 11
13 12
12 14
10 15
11 13
12 11
14 12
15 10
17 9
18 7
19 5
18 3
17 1
19 0
18 2
19 4
18 6
17 8
15 9
14 11
12 12
10 13
11 11
13 10
14 8
16 7
17 5
16 3
18 4
17 6
16 8
14 9
13 11
11 12
12 10
10 11
11 9
13 8
15 7
16 5
17 3
16 1
15 3
17 4
16 6
15 8
13 9
14 7
15 5
14 3
16 2
17 0
15 1
13 0
14 2
15 0
13 1
15 2
16 4
15 6
14 4
13 2
14 0
12 1
13 3
15 4
14 6
13 4
12 6
14 5
13 7
12 9
10 10
11 8
9 9
11 10
12 8
13 6
11 7
10 9
8 8
10 7
11 5
12 7
13 5
12 3
11 1
9 0
10 2
11 0
12 2
11 4
10 6
12 5
11 3
10 5
12 4
11 2
10 0
8 1
6 0
4 1
3 3
4 5
3 7
5 6
4 4
3 6
5 7
7 6
9 7
11 6
10 8
8 7
9 5
8 3
9 1
7 0
5 1
3 0
4 2
5 0
3 1
4 3
5 5
3 4
4 6
6 7
8 6
9 8
7 7
9 6
8 4
9 2
7 1
5 2
7 3
6 5
5 3
7 2
6 4
8 5
6 6
5 4
7 5
6 3
8 2
7 4
-1
